C:\Users\noetz\maven\praktikum\src\main\java\de\hfu\App.java
C:\Users\noetz\maven\praktikum\src\main\java\de\hfu\integration\service\ResidentServiceException.java
C:\Users\noetz\maven\praktikum\src\main\java\de\hfu\integration\repository\ResidentRepositoryStub.java
C:\Users\noetz\maven\praktikum\src\main\java\de\hfu\integration\repository\ResidentRepository.java
C:\Users\noetz\maven\praktikum\src\main\java\de\hfu\integration\service\BaseResidentService.java
C:\Users\noetz\maven\praktikum\src\main\java\de\hfu\integration\domain\Resident.java
C:\Users\noetz\maven\praktikum\src\main\java\de\hfu\integration\service\ResidentService.java
C:\Users\noetz\maven\praktikum\src\main\java\de\hfu\unit\Queue.java
C:\Users\noetz\maven\praktikum\src\main\java\de\hfu\unit\Util.java
